<svg _ngcontent-serverApp-c2="" fill="none" viewBox="0 0 112 27" xmlns="http://www.w3.org/2000/svg" width="112" height="27">
    <path _ngcontent-serverApp-c2="" d="M3.54209 25.0112C2.07842 24.6892 0.907477 24.3379 0 23.928L0.439102 20.4738C1.58077 21.03 2.8688 21.4983 4.33247 21.9082C5.76687 22.318 7.20127 22.5229 8.63567 22.5229C10.2457 22.5229 11.4752 22.2302 12.3534 21.6447C13.2316 21.0592 13.6707 20.181 13.6707 19.0101C13.6707 18.1319 13.4365 17.4001 12.9974 16.8439C12.5583 16.2584 11.885 15.7607 11.0361 15.3802C10.1872 14.9704 8.98695 14.5605 7.43546 14.0922C5.88396 13.6238 4.59593 13.1554 3.54209 12.6285C2.51752 12.1016 1.66859 11.3697 1.05385 10.4623C0.409829 9.55477 0.117093 8.38384 0.117093 7.00799C0.117093 5.07594 0.878204 3.49517 2.37115 2.29496C3.8641 1.09475 5.97178 0.509277 8.69422 0.509277C10.1579 0.509277 11.563 0.655646 12.851 0.977654C14.1684 1.29966 15.31 1.68022 16.3053 2.14859L15.954 5.60286C14.666 4.84175 13.4365 4.28555 12.2363 3.96355C11.0361 3.61226 9.80661 3.43662 8.51858 3.43662C7.02563 3.43662 5.85469 3.70008 4.97649 4.25628C4.09828 4.81248 3.65918 5.66141 3.65918 6.80307C3.65918 7.59345 3.8641 8.2082 4.27392 8.73512C4.68375 9.23277 5.23995 9.67187 6.00106 10.0231C6.76217 10.3744 7.81601 10.755 9.16259 11.1648C11.8557 11.9845 13.8756 12.9798 15.1929 14.0922C16.5102 15.2338 17.1835 16.7853 17.1835 18.7759C17.1835 20.8836 16.3931 22.5229 14.8124 23.6939C13.2316 24.8648 10.8897 25.4503 7.81601 25.4503C6.44016 25.4503 5.00576 25.3039 3.54209 25.0112Z" id="s" fill="#033455" />
    <path _ngcontent-serverApp-c2="" d="M112 0.948486L103.394 24.982H99.9687L91.3623 0.948486H94.7873L101.696 20.4153L108.604 0.948486H112Z" id="v" fill="#033455" />
    <path _ngcontent-serverApp-c2="" d="M78.6286 24.982L76.3745 6.83247L69.8466 19.303L63.1722 6.8032L60.9182 25.0113H57.4932L60.7132 0.977783H63.4942L69.8173 12.8921L76.0525 0.977783H78.8628L82.0536 24.982H78.6286Z" id="m" fill="#033455" />
    <path _ngcontent-serverApp-c2="" clip-rule="evenodd" d="M32.6102 5.25139C32.8444 5.04648 33.1079 4.87084 33.3421 4.63665C33.4884 4.49028 33.547 4.51956 33.547 4.72447C33.6933 4.6952 33.7226 4.54883 33.7812 4.46101C33.8397 4.54883 33.7812 4.63665 33.7519 4.72447C33.6641 4.87084 33.547 5.0172 33.4299 5.1343C33.4591 5.10503 33.4884 5.01721 33.5762 5.01721C33.6348 5.01721 33.7226 4.92939 33.7519 5.01721C33.7812 5.07575 33.7519 5.16357 33.6933 5.22212C33.5177 5.39776 33.2542 5.48558 33.225 5.74904C33.225 5.77832 33.1371 5.77831 33.0786 5.77831C32.9615 5.80759 32.8444 5.83686 32.8151 5.92468C32.7566 6.1296 32.4931 6.15887 32.4638 6.39306C32.4638 6.42233 32.4053 6.4516 32.4053 6.4516C32.1711 6.27596 32.1711 6.5687 32.1418 6.62725C32.0247 6.89071 31.8784 7.12489 31.6735 7.32981C31.4978 7.47617 31.3515 7.68109 31.2636 7.88601C31.1465 7.88601 31.1758 7.73964 31.1173 7.71036C31.0002 7.76891 30.9124 7.886 30.9124 8.0031C30.8538 8.29583 30.6489 8.50075 30.4147 8.64711C30.3269 8.70566 30.3854 8.76421 30.4147 8.82276C30.444 9.02767 30.444 9.02767 30.2683 9.14476C30.2098 9.17403 30.1805 9.26186 30.1805 9.3204C30.0927 9.67168 29.9756 10.023 29.8878 10.3742C29.8878 10.4621 29.7707 10.3742 29.7707 10.4621C29.7414 10.5499 29.7121 10.6377 29.8585 10.5792C30.0634 10.5499 30.0341 10.7548 30.0634 10.8426C30.0927 10.9597 30.0634 11.0768 30.0342 11.2232C29.9171 12.0136 29.8585 12.8039 30.0342 13.5651C30.0342 13.6236 30.0634 13.6821 30.0634 13.7114C29.9171 13.7407 29.9463 13.5943 29.8585 13.6236C29.7414 13.5651 29.7707 13.4772 29.7707 13.3601C29.7707 13.126 29.7707 12.921 29.7707 12.8039C29.7707 13.0381 29.7414 13.3601 29.8 13.7114C29.7707 13.77 29.7707 13.7992 29.7707 13.8578C29.9171 14.5604 30.1512 15.2336 30.5903 15.8191C30.7074 15.9655 30.6782 16.1704 30.8245 16.3168C30.7953 16.346 30.766 16.346 30.7367 16.3168C30.5903 16.346 30.444 16.3168 30.3269 16.2289C30.5903 16.9315 31.2051 17.3413 31.7027 17.9268C30.8538 17.6048 30.2098 17.195 29.9171 16.346C29.8585 16.1411 29.7414 15.9362 29.5658 15.7898C29.5072 15.8777 29.5365 15.9069 29.5658 15.9948C29.595 16.0533 29.9171 16.1704 29.5658 16.2289C29.595 16.2875 29.595 16.346 29.6243 16.4046C29.595 16.4339 29.5658 16.4339 29.5365 16.4046C29.4194 16.2875 29.4194 16.0826 29.273 15.9948C29.2438 15.9948 29.2145 15.9947 29.1852 15.9655C29.1559 15.9362 29.1267 15.8777 29.0974 15.9069C29.0681 15.9655 29.1267 16.024 29.1559 16.0826C29.1852 16.1118 29.1852 16.1411 29.1852 16.1704C29.3901 16.346 29.2145 16.6388 29.3901 16.8144C29.4194 16.873 29.4487 16.9608 29.5658 16.9022C29.8292 17.3413 29.9756 17.839 30.2683 18.2488C30.3269 18.3366 30.3854 18.483 30.5318 18.4244C30.6489 18.3952 30.5903 18.483 30.6196 18.5415C30.6782 18.6879 30.7367 18.805 30.9416 18.805C31.2051 18.8343 31.41 19.0099 31.6149 19.1856C31.7906 19.3319 31.9369 19.5076 32.2004 19.6247C32.0833 19.4197 31.9369 19.3319 31.7906 19.1856C32.0833 19.2148 32.3175 19.3612 32.4931 19.5368C32.5809 19.6247 32.6688 19.6832 32.8151 19.6832C33.02 19.6832 33.1664 19.8003 33.3421 19.8881C33.4299 19.8296 33.2835 19.7418 33.3421 19.7125C33.4006 19.6539 33.4884 19.7125 33.5177 19.7418C33.6933 19.9467 33.9568 19.9467 34.191 20.0345C34.7765 20.2687 35.2156 20.7078 35.5083 21.264C35.6254 21.4689 35.5961 21.7616 35.8596 21.908C35.9181 21.9373 35.8888 22.0544 35.8888 22.1422C35.8888 22.6984 35.8303 23.2253 35.2741 23.518C35.2448 23.5473 35.2156 23.5766 35.2156 23.6058C34.9521 24.1913 34.3666 24.2206 33.869 24.3962H33.8397C33.547 24.0742 33.2835 24.3962 32.9908 24.4255C32.2882 24.4841 31.6735 24.2206 31.1173 23.7815C30.5611 23.3424 30.0342 22.874 29.5072 22.4349C29.3316 22.2885 29.2145 22.1129 29.1559 21.908C29.1267 21.7909 29.0681 21.7323 28.9803 21.6445C27.9265 20.62 27.019 19.4783 26.3164 18.161C25.7602 17.1071 25.3797 15.9947 25.2626 14.7945C25.2333 14.5018 25.1162 14.2383 25.1162 13.9749C25.1162 13.2138 25.1748 12.4234 25.2919 11.6623C25.3211 11.5452 25.3504 11.4281 25.3504 11.311C25.3504 11.311 25.3504 11.311 25.3797 11.3403C25.4089 11.4866 25.4675 11.6037 25.4382 11.7501C25.4968 11.8672 25.4382 11.9843 25.4382 12.1014C25.4382 12.1307 25.4382 12.1307 25.4382 12.1307C25.4382 12.1307 25.4382 12.1014 25.4382 12.0721C25.4382 11.955 25.4675 11.8379 25.4968 11.7501C25.5846 11.1646 25.6724 10.5792 25.848 9.99369C25.7895 9.90587 25.7895 9.81805 25.848 9.70096C25.8773 9.67169 25.8773 9.67168 25.9066 9.67168C26.1115 9.26186 26.4042 8.8813 26.4335 8.41292C26.4335 8.26656 26.6092 8.20801 26.697 8.09092C26.7555 8.0031 26.8433 7.94455 26.8433 7.85673C26.8141 7.41763 27.1068 7.1249 27.2824 6.77361C27.4581 6.39306 27.663 6.04178 27.8972 5.66122C27.9557 5.77832 27.8972 5.89541 27.8679 5.98323C27.8679 6.1296 27.7508 6.24669 27.6923 6.36378C27.6923 6.39306 27.663 6.42233 27.663 6.42233L27.6923 6.39306C27.7215 6.33451 27.7508 6.27596 27.7801 6.24669C27.8386 6.15887 27.8972 6.04178 27.9557 5.98323C28.0436 5.86614 28.0728 5.71977 28.2192 5.60268C28.3363 6.1296 27.7215 6.42233 27.8094 6.94925C28.0728 6.80288 28.1021 6.53942 28.2485 6.30524C28.3948 6.51015 28.1607 6.62724 28.1899 6.80288C28.3363 6.68579 28.4827 6.5687 28.6876 6.39306C28.3363 7.4469 27.6337 8.26656 27.4874 9.29113C27.7801 8.76421 28.0436 8.23729 28.3363 7.73964C28.3363 7.71037 28.3656 7.68109 28.3948 7.65182C28.5412 7.71036 28.4827 7.56399 28.5412 7.53472C28.5705 7.47617 28.5998 7.41763 28.6583 7.32981C28.6876 7.30053 28.7168 7.24199 28.7754 7.27126C28.8339 7.4469 28.7461 7.59327 28.6876 7.76891C28.6876 7.886 28.629 7.97382 28.5705 8.06164C28.5998 8.03237 28.5998 8.0031 28.629 8.0031C28.6876 7.91528 28.7461 7.82746 28.8339 7.73964C28.9218 7.68109 28.9803 7.59327 29.0681 7.53472C29.2438 7.47617 29.273 7.32981 29.3609 7.21272C29.3316 7.15417 29.3316 7.1249 29.3901 7.06635C29.4487 6.97853 29.5658 6.94925 29.6243 6.83216C29.7707 6.62725 29.9463 6.4516 30.0634 6.24669C30.2098 5.98323 30.4733 5.83686 30.6782 5.66122C31.1173 5.30994 31.4978 4.87084 31.9077 4.46101C31.9662 4.40246 32.0247 4.28537 32.1126 4.46101C32.1126 4.49028 32.1126 4.51956 32.1418 4.46101C32.1418 4.43173 32.1711 4.43174 32.2004 4.40246C32.2589 4.37319 32.2882 4.31464 32.3468 4.25609C32.4053 4.19755 32.4931 4.16827 32.5809 4.16827C33.547 3.49498 34.6594 3.20225 35.7717 2.90952C36.1523 2.8217 36.5036 2.73388 36.8841 2.61678C36.972 2.58751 37.0598 2.58751 37.1183 2.49969C37.1476 2.47041 37.1769 2.3826 37.2354 2.3826C37.3525 2.32405 37.4989 2.35332 37.5282 2.17768C37.5574 2.08986 37.6745 2.11913 37.7331 2.11913C39.7237 2.03131 41.6264 2.47041 43.3536 3.43644C44.788 4.22682 45.9589 5.28066 47.042 6.51015C47.3055 6.80288 47.4226 7.18344 47.7739 7.47617C47.4811 6.74434 47.1591 6.1296 46.6615 5.5734C46.6322 5.42703 46.5151 5.33921 46.4566 5.19284C46.0467 4.6952 45.5491 4.28537 45.0514 3.90481C44.8465 3.72917 44.6123 3.55353 44.3781 3.34862C44.5831 3.29007 44.6709 3.37789 44.788 3.46571C45.2563 3.78772 45.6662 4.19755 46.2224 4.40246C46.3102 4.43174 46.3395 4.49029 46.3687 4.51956C46.4858 4.66593 46.6029 4.78302 46.7493 4.84156H46.7786C46.7786 4.81229 46.7786 4.81229 46.7493 4.78302C46.8078 4.6952 46.8371 4.78302 46.8957 4.81229C46.9249 4.84157 46.9542 4.90011 47.0128 4.81229C46.8371 4.49029 46.5151 4.31464 46.2224 4.08046C46.4273 4.02191 46.5151 4.16828 46.6029 4.22682C46.6615 4.31464 46.72 4.37319 46.8078 4.28537C46.9249 4.34392 47.0128 4.43174 47.0128 4.5781C47.042 4.6952 47.0713 4.81229 47.2177 4.81229C47.4519 4.81229 47.5104 5.1343 47.7739 5.1343C47.8324 5.1343 47.8324 5.19285 47.8617 5.22212C47.9495 5.5734 48.1837 5.86614 48.4472 6.1296C48.7984 6.53943 49.0326 7.03707 49.2375 7.50545C49.8523 8.9984 50.3499 10.5499 50.467 12.1892C50.4963 12.8039 50.5548 13.4187 50.4377 14.0334C50.4377 14.0627 50.4085 14.092 50.4377 14.1212C50.5548 14.5018 50.3792 14.8824 50.3792 15.2336C50.3792 15.9362 50.1743 16.5509 49.9401 17.195C49.7937 17.5755 49.6474 17.9561 49.501 18.3366C49.4717 18.4537 49.4132 18.5708 49.4425 18.6879C49.4425 18.7465 49.3839 18.7757 49.3839 18.805C49.3546 18.8635 49.2668 18.8928 49.2961 18.9806C49.3254 18.9514 49.3254 18.8635 49.3839 18.9514C49.3546 19.2441 49.179 19.4783 49.0034 19.7418C48.8277 20.0052 48.7692 20.3565 48.4179 20.5029C48.3886 20.5029 48.3886 20.5614 48.3886 20.5614C48.5057 20.8541 48.2715 21.0005 48.1251 21.1762C47.5397 21.9373 46.8957 22.6398 46.1638 23.2838C46.076 23.3131 46.076 23.3717 46.1053 23.4302C45.9882 23.6351 45.754 23.6937 45.5784 23.84C45.4613 23.9279 45.3149 24.0157 45.2271 24.1328C45.1978 24.162 45.1978 24.2206 45.1685 24.2206C44.6416 24.2499 44.3489 24.689 43.8805 24.8353C43.617 24.9232 43.3536 25.0988 43.1194 25.2452C42.5046 25.655 41.8021 25.6257 41.1581 25.8306C40.4848 26.0355 39.8115 26.1234 39.1089 26.1234C39.1089 26.1234 39.1089 26.1234 39.0796 26.0941C39.1382 25.977 39.2846 25.977 39.4017 25.977C39.8115 25.977 40.192 25.8599 40.6019 25.7135C40.5433 25.6257 40.4262 25.7135 40.397 25.6257C40.397 25.5672 40.4262 25.5672 40.4555 25.5672C41.4801 25.1573 42.4754 24.7768 43.4414 24.2206C43.5585 24.162 43.6463 24.0742 43.7341 24.0157C43.7927 23.9864 43.7927 23.9279 43.8805 23.8986C43.9098 23.8986 43.939 23.8693 43.9683 23.84C43.9683 23.84 43.9976 23.84 43.9976 23.8108L43.9683 23.84C43.9098 23.8693 43.8512 23.8986 43.7634 23.9279V23.8986C43.7049 23.8693 43.7049 23.84 43.7634 23.8108C44.0854 23.5766 44.3781 23.3424 44.7001 23.1082C44.8465 22.9033 45.0807 22.7569 45.2856 22.6398C45.4027 22.5813 45.5198 22.4642 45.6076 22.3764C45.6954 22.3178 45.754 22.23 45.8125 22.1714C45.9882 21.9958 46.1345 21.7909 46.3102 21.6153C46.3395 21.586 46.2809 21.586 46.3102 21.6153C46.2516 21.7323 46.1053 21.7909 46.0467 21.908C45.9004 22.0544 45.7833 22.2007 45.6369 22.3471C45.5198 22.4349 45.432 22.5813 45.2856 22.6398C45.0807 22.7569 44.8758 22.9326 44.6709 23.0497C44.5538 23.0204 44.4367 23.0496 44.3489 23.1667C44.1732 23.4009 43.9683 23.518 43.6756 23.518C43.6463 23.4595 43.7049 23.4302 43.7049 23.4009C43.6756 23.4302 43.617 23.4595 43.5585 23.4595C42.7388 23.9279 41.9192 24.3377 41.041 24.6304C40.8068 24.7182 40.5726 24.7768 40.3091 24.8061C40.9531 24.4548 41.7435 24.367 42.2997 23.84C41.5386 24.1035 40.7775 24.4255 39.9579 24.6011C40.0749 24.4255 40.2213 24.4548 40.3091 24.367C40.3384 24.367 40.3677 24.367 40.3677 24.3377C40.3677 24.3377 40.3091 24.3377 40.3091 24.3084C39.9871 24.3962 39.6358 24.4841 39.3138 24.5719C39.1967 24.6011 39.0504 24.6304 38.904 24.5719C39.4602 24.4841 39.7822 24.0157 40.2799 23.8108C40.7775 23.6058 41.2752 23.3717 41.7728 23.1082C41.1288 23.196 40.514 23.5473 39.8408 23.4302C39.9871 23.2253 40.2213 23.1375 40.4555 23.0789C40.9531 22.9326 41.3923 22.6398 41.8314 22.3764C41.8899 22.3471 41.9192 22.3178 41.9192 22.2593C41.9192 22.2593 41.8899 22.2593 41.8606 22.2593C41.0995 22.6106 40.3384 22.9618 39.5187 23.2253C39.8115 22.9326 40.1628 22.7569 40.514 22.5813C40.7482 22.4642 41.0117 22.3764 41.2459 22.2007C41.3044 22.1714 41.3337 22.0836 41.3923 22.0836C41.4508 22.0544 41.4801 22.0251 41.5386 21.9958H41.5679C41.5972 21.9665 41.5972 21.9665 41.5679 21.9958C41.5093 22.0251 41.4508 22.0836 41.3923 22.0836C41.3337 22.1129 41.2752 22.1714 41.2166 22.2007C40.7482 22.1714 40.3677 22.3471 40.0164 22.5813C39.8993 22.6691 39.7529 22.7569 39.6358 22.8155C39.548 22.8447 39.548 22.7862 39.6066 22.7276C39.6066 22.6984 39.7822 22.6984 39.6358 22.6105V22.5813C39.5773 22.552 39.5773 22.5227 39.6358 22.4935C40.1335 22.23 40.6019 21.9958 41.0702 21.7323C41.1288 21.7031 41.1581 21.6738 41.1873 21.6445C41.2752 21.586 41.3337 21.4689 41.4215 21.4103C41.4508 21.3518 41.4508 21.264 41.5386 21.2347C41.5679 21.2054 41.5972 21.1762 41.5972 21.1762C41.7143 21.0591 41.8021 20.942 41.9484 20.8834C42.0363 20.8541 42.0948 20.8541 42.1826 20.8249C42.8559 20.3272 43.5292 19.8003 44.0854 19.1563C45.11 17.9853 45.754 16.6095 46.1053 15.1165C46.1053 15.0873 46.1053 15.058 46.1053 15.0287C45.9589 15.058 46.0175 15.2336 45.9004 15.2922C45.8418 15.0287 45.8711 15.058 46.1053 14.8531C46.2516 14.7067 46.2516 14.4725 46.2809 14.2676C46.2516 13.9163 46.2516 13.5943 46.3395 13.243C46.4273 11.8086 46.1638 10.4621 45.6076 9.14476C45.5784 9.05694 45.5491 8.93985 45.5198 8.85203C45.5198 8.67639 45.4613 8.50075 45.3442 8.35438C44.9929 7.85673 44.7294 7.32981 44.2903 6.89071C44.2318 6.86143 44.2025 6.83216 44.1732 6.80288C44.0854 6.71506 44.0854 6.71507 44.0269 6.77361C43.7049 6.39306 43.3536 6.04177 42.9437 5.77831C41.0117 4.51956 38.9626 4.28537 36.767 4.90011C36.0059 5.10502 35.2448 5.39776 34.513 5.71977C34.4837 5.63195 34.6008 5.63195 34.5715 5.5734C34.5423 5.5734 34.513 5.5734 34.513 5.5734C34.4544 5.74904 34.3081 5.83686 34.1617 5.92468C33.9861 6.04177 33.8104 6.18814 33.6348 6.33451C33.4591 6.45161 33.2835 6.59797 33.0786 6.71507C32.9029 6.83216 32.7859 6.97853 32.6688 7.12489C32.5809 7.21271 32.5517 7.41763 32.376 7.30054C32.376 7.30054 32.3175 7.35908 32.2882 7.41763C32.2004 7.59327 31.9955 7.71036 31.9369 7.91528C31.9369 7.94455 31.9369 7.97382 31.9077 8.0031C31.7906 8.03237 31.732 8.12019 31.7027 8.23729C31.4978 8.79348 31.1173 9.26186 30.8538 9.78878C30.8245 9.58387 30.8538 9.37895 30.9416 9.17404C31.2636 8.29583 31.8491 7.59327 32.4638 6.91998C32.9908 6.36379 33.6055 5.98323 34.2788 5.63195C34.5715 5.48558 34.8643 5.33921 35.157 5.16357C35.2156 5.28067 35.0399 5.25139 35.0692 5.36849C36.0352 5.04648 36.9427 4.54883 37.938 4.28537C37.9965 4.22682 38.0551 4.22682 38.1136 4.19755C38.1429 4.19755 38.1429 4.19755 38.1429 4.19755H38.1136C38.0551 4.19755 37.9965 4.2561 37.938 4.19755C37.4989 4.19755 37.0598 4.43174 36.5914 4.34392C36.5621 4.19755 36.65 4.08045 36.767 3.96336C36.2401 3.90481 35.7717 4.16827 35.3034 4.25609C35.801 3.99263 36.2987 3.6999 36.8841 3.64135C36.9134 3.58281 37.0012 3.5828 37.0305 3.5828C37.0891 3.5828 37.1183 3.58281 37.2061 3.55353C37.0598 3.55353 36.9427 3.61208 36.8256 3.5828C36.7963 3.55353 36.6792 3.67063 36.6792 3.49499C36.7085 3.34862 36.6792 3.34862 36.972 3.1437C36.5621 3.1437 36.2108 3.23152 35.8596 3.37789C34.6886 3.90481 33.4006 4.22682 32.5517 5.30994C32.5517 5.16357 32.5517 5.16357 32.6102 5.25139Z" fill-rule="evenodd" fill="#033455" />
    <path _ngcontent-serverApp-c2="" clip-rule="evenodd" d="M45.9588 13.5066C45.9881 14.7068 45.6661 15.8192 45.1685 16.9023C44.7001 17.9561 44.0268 18.8929 43.2364 19.7125C43.1779 19.7711 43.1193 19.8296 43.0022 19.7711C42.9437 19.7418 42.8851 19.8882 42.7388 19.8589C43.1486 19.4784 43.5292 19.0978 43.8804 18.688C45.0514 17.2536 45.6954 15.6143 45.8418 13.7408C45.8418 13.6822 45.871 13.5944 45.871 13.5358C45.9003 13.448 45.9296 13.4773 45.9588 13.5066Z" fill-rule="evenodd" fill="#033455" />
    <path _ngcontent-serverApp-c2="" clip-rule="evenodd" d="M40.1923 0.421432C40.2801 0.450706 40.3972 0.450705 40.485 0.479978C40.7485 0.538525 41.0998 0.538526 41.0705 1.0069C40.3387 0.889807 39.6068 0.831259 38.8457 0.831259C39.1677 0.479977 39.6068 0.597072 39.9874 0.479978C40.0166 0.392158 40.1045 0.421432 40.1923 0.421432Z" fill-rule="evenodd" fill="#033455" />
    <path _ngcontent-serverApp-c2="" clip-rule="evenodd" d="M33.4296 2.20721C32.61 2.67558 31.8196 3.20251 31.117 3.84652C31.0585 3.90507 30.9999 3.96362 30.9414 3.99289C30.8536 4.08071 30.7658 4.1978 30.6194 4.08071C30.5023 4.08071 30.5316 4.37344 30.3267 4.25635C30.5023 3.99289 30.7365 3.78797 31 3.61233C31.2927 3.40742 31.5269 3.14396 31.8196 2.96832C32.2002 2.73413 32.4929 2.35357 32.9613 2.29503C33.1369 2.26575 33.2833 2.17793 33.4296 2.11938C33.4589 2.14866 33.4882 2.17793 33.4296 2.20721Z" fill-rule="evenodd" fill="#033455" />
    <path _ngcontent-serverApp-c2="" clip-rule="evenodd" d="M31.0003 2.88027C30.8832 2.99736 30.8832 3.14373 30.7954 3.29009C30.6783 3.46573 30.5319 3.58283 30.2977 3.67065C30.327 3.52428 30.4734 3.34864 30.1514 3.46574C30.2392 3.23155 30.4441 3.11446 30.5612 2.96809C30.5905 2.93882 30.6197 2.93881 30.6197 2.93881C30.7954 3.20227 30.8247 2.85099 30.9417 2.85099C30.971 2.82172 31.0003 2.85099 31.0003 2.88027C31.0003 2.88027 31.0003 2.85099 31.0003 2.88027Z" fill-rule="evenodd" fill="#033455" />
    <path _ngcontent-serverApp-c2="" clip-rule="evenodd" d="M39.4893 1.09472C39.9869 1.06545 40.3967 1.124 40.6309 1.27036C40.5138 1.38746 40.3675 1.38746 40.2504 1.38746C40.0455 1.35818 39.8698 1.32891 39.6649 1.35818C39.4893 1.35818 39.5478 1.27036 39.5478 1.18254C39.5185 1.15327 39.4893 1.15327 39.4893 1.09472Z" fill-rule="evenodd" fill="#033455" />
    <path _ngcontent-serverApp-c2="" clip-rule="evenodd" d="M37.4108 1.59226C37.6157 1.50444 37.8499 1.47516 38.084 1.41661C38.1426 1.35807 38.2304 1.38734 38.3182 1.41661C38.5524 1.41661 38.7866 1.38734 39.0208 1.44589C39.0208 1.47516 39.0208 1.50444 38.9622 1.50444C38.4353 1.56298 37.9377 1.62153 37.4108 1.68007C37.3815 1.6508 37.3522 1.62153 37.4108 1.59226Z" fill-rule="evenodd" fill="#033455" />
    <path _ngcontent-serverApp-c2="" clip-rule="evenodd" d="M45.871 12.7749C45.8417 12.4236 45.8125 12.043 45.7832 11.6918C45.8125 11.6625 45.8417 11.6332 45.871 11.6918C45.9003 11.8674 45.9003 12.043 45.9296 12.2187C45.9296 12.2772 45.9296 12.3358 45.9588 12.365C46.2516 12.5407 46.0759 12.6871 45.9296 12.8334C45.9003 12.8334 45.871 12.8334 45.871 12.7749Z" fill-rule="evenodd" fill="#033455" />
    <path _ngcontent-serverApp-c2="" clip-rule="evenodd" d="M37.3816 0.831064C37.7329 0.743244 38.1135 0.743242 38.494 0.801789C38.1427 1.0067 37.7622 0.831065 37.4109 0.918886C37.3231 0.889612 37.3231 0.860338 37.3816 0.831064Z" fill-rule="evenodd" fill="#033455" />
    <path _ngcontent-serverApp-c2="" clip-rule="evenodd" d="M46.2522 13.9748C46.1059 13.5357 46.223 13.1258 46.2522 12.6575C46.3986 12.8038 46.3108 12.9502 46.3693 13.0673C46.3693 13.3893 46.3986 13.682 46.2522 13.9748Z" fill-rule="evenodd" fill="#033455" />
    <path _ngcontent-serverApp-c2="" clip-rule="evenodd" d="M45.8713 11.6917C45.8421 11.6917 45.8128 11.6917 45.7835 11.6917C45.725 11.2526 45.6372 10.8428 45.5786 10.4037C45.6079 10.3744 45.6372 10.3451 45.6664 10.4037C45.8128 10.8428 45.8421 11.2526 45.8713 11.6917Z" fill-rule="evenodd" fill="#033455" />
    <path _ngcontent-serverApp-c2="" clip-rule="evenodd" d="M46.2521 13.9749C46.2814 13.6821 46.3399 13.3894 46.3692 13.0967C46.3985 13.0967 46.4277 13.0967 46.457 13.0967C46.4863 13.448 46.457 13.77 46.3985 14.1213C46.3106 14.0627 46.1935 14.092 46.2521 13.9749Z" fill-rule="evenodd" fill="#033455" />
    <path _ngcontent-serverApp-c2="" clip-rule="evenodd" d="M29.7998 13.6824C29.6241 13.2725 29.6827 12.8627 29.7705 12.4529C29.8876 12.8334 29.712 13.2433 29.8583 13.5945C29.8583 13.6238 29.829 13.6531 29.7998 13.6824Z" fill-rule="evenodd" fill="#033455" />
    <path _ngcontent-serverApp-c2="" clip-rule="evenodd" d="M32.4053 3.49518C32.6102 3.23172 32.9029 3.11463 33.2542 2.96826C33.0493 3.31954 32.6687 3.31954 32.4638 3.55373C32.4346 3.55373 32.4053 3.52446 32.4053 3.49518Z" fill-rule="evenodd" fill="#033455" />
    <path _ngcontent-serverApp-c2="" clip-rule="evenodd" d="M29.4491 6.01247C29.2735 6.33448 29.0686 6.59794 28.8344 6.8614C28.8051 6.91995 28.7759 6.91995 28.7466 6.89067C28.8929 6.65648 29.0393 6.39302 29.215 6.18811C29.3028 6.10029 29.3028 5.95392 29.4491 6.01247Z" fill-rule="evenodd" fill="#033455" />
    <path _ngcontent-serverApp-c2="" clip-rule="evenodd" d="M29.5361 16.3167C29.5654 16.3167 29.5947 16.3167 29.6239 16.3167C29.7703 16.5801 29.9752 16.8436 30.0923 17.1363C29.7996 16.9607 29.6532 16.6679 29.5361 16.3167Z" fill-rule="evenodd" fill="#033455" />
    <path _ngcontent-serverApp-c2="" clip-rule="evenodd" d="M42.2998 20.6493C42.2412 20.7371 42.1827 20.7371 42.0949 20.7078C41.9778 20.7663 41.8607 20.8542 41.7436 20.8834C41.7143 20.7371 41.8607 20.6493 41.9192 20.5322C42.007 20.5029 42.0949 20.4443 42.2119 20.4443C42.2412 20.5029 42.2705 20.5614 42.2998 20.6493Z" fill-rule="evenodd" fill="#033455" />
    <path _ngcontent-serverApp-c2="" clip-rule="evenodd" d="M44.7295 22.8449C44.8759 22.6107 45.0515 22.4936 45.315 22.4351C45.3442 22.4351 45.3442 22.4351 45.3442 22.4351V22.4643C45.1393 22.64 44.9637 22.8156 44.7295 22.9327C44.7295 22.9034 44.7295 22.8742 44.7295 22.8449Z" fill-rule="evenodd" fill="#033455" />
    <path _ngcontent-serverApp-c2="" clip-rule="evenodd" d="M30.9712 4.66604C31.0297 4.40257 31.2932 4.28548 31.5274 4.08057C31.4396 4.40257 31.1761 4.49039 30.9712 4.66604Z" fill-rule="evenodd" fill="#033455" />
    <path _ngcontent-serverApp-c2="" clip-rule="evenodd" d="M40.0163 0.391925C39.8992 0.362652 39.7528 0.333377 39.6064 0.304104C39.8406 0.0991896 40.0748 0.274832 40.2797 0.187012C40.2797 0.304106 40.2212 0.304103 40.1626 0.36265C40.1041 0.421197 40.0455 0.421198 40.0163 0.391925Z" fill-rule="evenodd" fill="#033455" />
    <path _ngcontent-serverApp-c2="" clip-rule="evenodd" d="M33.4302 2.207C33.4302 2.17772 33.4302 2.14845 33.4302 2.11918C33.6351 2.03136 33.7522 1.7679 34.0449 1.91426C33.84 2.00208 33.6351 2.0899 33.4302 2.207Z" fill-rule="evenodd" fill="#033455" />
    <path _ngcontent-serverApp-c2="" clip-rule="evenodd" d="M40.8068 21.4397C40.8946 21.4397 40.9239 21.469 40.8653 21.5568C40.7483 21.6739 40.6019 21.7324 40.4555 21.7617C40.397 21.7324 40.397 21.7032 40.397 21.6446C40.397 21.5861 40.4555 21.5568 40.4848 21.5275C40.5726 21.4982 40.6312 21.469 40.719 21.4397C40.719 21.4397 40.7483 21.4397 40.8068 21.4397Z" fill-rule="evenodd" fill="#033455" />
    <path _ngcontent-serverApp-c2="" clip-rule="evenodd" d="M29.5073 5.36865C29.5366 5.04664 29.7708 4.90027 30.005 4.75391C29.8586 4.98809 29.6244 5.13446 29.5073 5.36865Z" fill-rule="evenodd" fill="#033455" />
    <path _ngcontent-serverApp-c2="" clip-rule="evenodd" d="M39.4897 1.09473C39.519 1.124 39.519 1.124 39.5483 1.15328C39.4897 1.18255 39.4019 1.124 39.3141 1.21182C39.1677 1.38746 39.0506 1.24109 38.875 1.18255C39.1385 1.09473 39.3141 1.09473 39.4897 1.09473Z" fill-rule="evenodd" fill="#033455" />
    <path _ngcontent-serverApp-c2="" clip-rule="evenodd" d="M41.3338 21.3518C41.2167 21.2932 41.0703 21.2639 40.9532 21.3518C40.924 21.3225 40.8947 21.2932 40.9532 21.2639C41.0703 21.1176 41.2167 21.0883 41.3923 21.1761C41.4509 21.2054 41.4216 21.2347 41.4216 21.2639C41.3923 21.3225 41.3631 21.3518 41.3338 21.3518Z" fill-rule="evenodd" fill="#033455" />
    <path _ngcontent-serverApp-c2="" clip-rule="evenodd" d="M30.5903 15.3801C30.7074 15.585 30.8538 15.7607 30.9123 16.0534C30.6489 15.8485 30.5903 15.6143 30.5903 15.3801Z" fill-rule="evenodd" fill="#033455" />
    <path _ngcontent-serverApp-c2="" clip-rule="evenodd" d="M35.918 4.3147C35.8594 4.46106 35.7423 4.49034 35.6545 4.51962C35.596 4.54889 35.5082 4.60744 35.4789 4.51962C35.4496 4.43179 35.5374 4.37325 35.6253 4.37325C35.7131 4.3147 35.8302 4.37324 35.918 4.3147Z" fill-rule="evenodd" fill="#033455" />
    <path _ngcontent-serverApp-c2="" clip-rule="evenodd" d="M38.1431 23.8108C38.3187 23.7815 38.4651 23.5473 38.6993 23.7229C38.5236 23.8108 38.348 23.8693 38.1431 23.8986C38.1431 23.8693 38.1431 23.84 38.1431 23.8108Z" fill-rule="evenodd" fill="#033455" />
    <path _ngcontent-serverApp-c2="" clip-rule="evenodd" d="M36.9429 3.31959C37.1185 3.26104 37.2649 3.14395 37.4991 3.26104C37.3234 3.34886 37.1771 3.37813 37.0014 3.37813C36.9721 3.37813 36.9429 3.34886 36.9429 3.31959Z" fill-rule="evenodd" fill="#033455" />
    <path _ngcontent-serverApp-c2="" clip-rule="evenodd" d="M45.2856 9.34985C45.4027 9.49622 45.5198 9.67186 45.4906 9.90605C45.3442 9.70113 45.2856 9.52549 45.2856 9.34985Z" fill-rule="evenodd" fill="#033455" />
    <path _ngcontent-serverApp-c2="" clip-rule="evenodd" d="M42.651 20.1223C42.5924 20.3272 42.3875 20.3272 42.2412 20.3857C42.1533 20.3272 42.2412 20.2979 42.2704 20.2686C42.3875 20.1515 42.5046 20.1223 42.651 20.0637C42.7095 20.0637 42.7095 20.093 42.651 20.1223Z" fill-rule="evenodd" fill="#033455" />
    <path _ngcontent-serverApp-c2="" clip-rule="evenodd" d="M33.6057 4.98805C33.5179 5.10514 33.43 5.19296 33.2544 5.22224C33.43 5.04659 33.5764 4.87095 33.752 4.69531C33.752 4.84168 33.6057 4.87095 33.6057 4.98805Z" fill-rule="evenodd" fill="#033455" />
    <path _ngcontent-serverApp-c2="" clip-rule="evenodd" d="M45.8709 12.7747C45.9002 12.8039 45.9295 12.8039 45.9295 12.8332C45.9587 13.0674 45.988 13.2723 45.9587 13.5065C45.9295 13.5065 45.9002 13.5065 45.8709 13.5065C45.9295 13.2723 45.8124 13.0381 45.8709 12.7747Z" fill-rule="evenodd" fill="#033455" />
    <path _ngcontent-serverApp-c2="" clip-rule="evenodd" d="M31.0884 16.7266C31.2933 16.8144 31.3226 16.99 31.4397 17.1364C31.2347 17.1071 31.1762 16.9608 31.0884 16.7266Z" fill-rule="evenodd" fill="#033455" />
    <path _ngcontent-serverApp-c2="" clip-rule="evenodd" d="M46.5151 5.07568C46.6321 5.1635 46.7492 5.2806 46.72 5.45624C46.6321 5.33915 46.3394 5.33914 46.5151 5.07568Z" fill-rule="evenodd" fill="#033455" />
    <path _ngcontent-serverApp-c2="" clip-rule="evenodd" d="M39.6939 22.3181C39.6939 22.3474 39.6939 22.3767 39.6939 22.4059C39.5476 22.4938 39.4012 22.5816 39.1963 22.5523C39.3719 22.4352 39.5476 22.3474 39.6939 22.3181Z" fill-rule="evenodd" fill="#033455" />
    <path _ngcontent-serverApp-c2="" clip-rule="evenodd" d="M30.9122 9.58398C30.8537 9.75963 30.8244 9.84745 30.7951 9.93527C30.7659 9.96454 30.7659 10.0524 30.7073 10.0231C30.6488 9.99381 30.5902 9.906 30.6488 9.84745C30.7073 9.75963 30.7951 9.70108 30.9122 9.58398Z" fill-rule="evenodd" fill="#033455" />
    <path _ngcontent-serverApp-c2="" clip-rule="evenodd" d="M36.8257 1.00704C36.6501 1.09486 36.5037 1.1534 36.2402 1.1534C36.4451 1.00704 36.6208 0.97776 36.7964 0.948486C36.7964 0.948486 36.8257 0.94849 36.8257 1.00704Z" fill-rule="evenodd" fill="#033455" />
    <path _ngcontent-serverApp-c2="" clip-rule="evenodd" d="M29.39 6.94954C29.39 6.97881 29.3607 7.03736 29.3607 7.06663C29.3022 7.00809 29.2729 7.12518 29.1851 7.12518C29.2143 7.00809 29.2729 6.92026 29.3607 6.80317C29.39 6.74462 29.4192 6.65681 29.5071 6.71535C29.5363 6.83245 29.5071 6.92026 29.39 6.94954Z" fill-rule="evenodd" fill="#033455" />
    <path _ngcontent-serverApp-c2="" clip-rule="evenodd" d="M47.1007 4.666C47.1299 4.75382 47.1299 4.7831 47.0421 4.72455C46.9836 4.69528 46.9543 4.57818 46.8665 4.63673C46.7786 4.54891 46.6908 4.46109 46.5737 4.37327C46.5737 4.344 46.603 4.34399 46.6323 4.34399C46.7201 4.37327 46.7494 4.46109 46.8372 4.49036C46.925 4.51963 46.9543 4.666 47.1007 4.666Z" fill-rule="evenodd" fill="#033455" />
    <path _ngcontent-serverApp-c2="" clip-rule="evenodd" d="M34.1033 4.37328C34.0741 4.16837 34.1619 4.10982 34.279 4.05127C34.279 4.05127 34.3375 4.08054 34.3375 4.10982C34.3668 4.28546 34.1912 4.25619 34.1033 4.37328Z" fill-rule="evenodd" fill="#033455" />
    <path _ngcontent-serverApp-c2="" clip-rule="evenodd" d="M31.0005 2.88018L30.9712 2.85091L31.0005 2.82164C31.0883 2.76309 31.1468 2.646 31.2639 2.646L31.2932 2.70454C31.2347 2.82164 31.1176 2.85091 31.0005 2.88018Z" fill-rule="evenodd" fill="#033455" />
    <path _ngcontent-serverApp-c2="" clip-rule="evenodd" d="M44.1436 6.56892C44.2314 6.53964 44.1436 6.39328 44.2021 6.42255C44.2899 6.4811 44.407 6.53964 44.4363 6.68601L44.407 6.71528C44.3485 6.74456 44.2899 6.68601 44.2314 6.68601C44.1728 6.65674 44.1436 6.62746 44.1436 6.56892Z" fill-rule="evenodd" fill="#033455" />
    <path _ngcontent-serverApp-c2="" clip-rule="evenodd" d="M41.7431 20.8544C41.8602 20.7665 41.948 20.6787 42.0944 20.6787C42.0066 20.8251 41.8602 20.9129 41.6846 20.9714C41.7138 20.9422 41.7431 20.9129 41.7431 20.8544Z" fill-rule="evenodd" fill="#033455" />
    <path _ngcontent-serverApp-c2="" clip-rule="evenodd" d="M50.6135 11.1648C50.5549 11.0477 50.5257 10.9306 50.5549 10.8135C50.7013 10.9013 50.7306 11.0184 50.6135 11.1648Z" fill-rule="evenodd" fill="#033455" />
    <path _ngcontent-serverApp-c2="" clip-rule="evenodd" d="M42.2995 20.2688C42.2702 20.2981 42.241 20.3566 42.2703 20.3859C42.2703 20.4152 42.241 20.4152 42.241 20.4152C42.1824 20.5323 42.0653 20.5323 41.9482 20.503C42.0361 20.4152 42.1532 20.3273 42.2995 20.2688Z" fill-rule="evenodd" fill="#033455" />
    <path _ngcontent-serverApp-c2="" clip-rule="evenodd" d="M40.2505 0.0700755C40.3969 -0.0177449 40.4847 -0.0177422 40.6603 0.0408047C40.514 0.128625 40.3969 0.187169 40.2505 0.0700755Z" fill-rule="evenodd" fill="#033455" />
    <path _ngcontent-serverApp-c2="" clip-rule="evenodd" d="M30.3266 4.2562C30.473 4.2562 30.473 4.08057 30.6194 4.08057C30.5315 4.13911 30.6486 4.2562 30.5315 4.31475C30.4437 4.28548 30.4144 4.3733 30.3559 4.3733C30.2388 4.3733 30.2681 4.31475 30.3266 4.2562Z" fill-rule="evenodd" fill="#033455" />
    <path _ngcontent-serverApp-c2="" clip-rule="evenodd" d="M31.9663 7.68122C32.0541 7.44703 32.259 7.32994 32.4054 7.1543C32.3761 7.35921 32.1712 7.41776 32.1127 7.62267C32.0541 7.62267 32.0541 7.71049 31.9663 7.68122Z" fill-rule="evenodd" fill="#033455" />
    <path _ngcontent-serverApp-c2="" clip-rule="evenodd" d="M28.5703 7.9445C28.5996 7.82741 28.6581 7.73958 28.7167 7.62249C28.8045 7.65176 28.8045 7.56394 28.863 7.53467C28.8923 7.53467 28.8923 7.56394 28.8923 7.56394C28.8338 7.65176 28.746 7.76886 28.6874 7.85668C28.6289 7.91522 28.5996 7.97377 28.5703 7.9445Z" fill-rule="evenodd" fill="#033455" />
    <path _ngcontent-serverApp-c2="" clip-rule="evenodd" d="M27.9851 5.89551C27.9558 6.0126 27.8973 6.10042 27.8388 6.21751C27.7802 6.21751 27.7509 6.30533 27.6924 6.30533C27.7802 6.18824 27.8388 6.04187 27.9266 5.92478C27.9266 5.89551 27.9558 5.89551 27.9851 5.89551Z" fill-rule="evenodd" fill="#033455" />
    <path _ngcontent-serverApp-c2="" clip-rule="evenodd" d="M46.8953 4.13911C46.8368 4.22693 47.0124 4.22693 46.9832 4.34403C46.8368 4.31475 46.7783 4.19766 46.6904 4.08057C46.749 4.08057 46.8368 4.10984 46.8953 4.13911Z" fill-rule="evenodd" fill="#033455" />
    <path _ngcontent-serverApp-c2="" clip-rule="evenodd" d="M38.0257 1.29954C37.9964 1.18244 38.055 1.1239 38.1428 1.21172C38.172 1.24099 38.4062 1.18244 38.2599 1.35808C38.172 1.38736 38.0842 1.41663 38.0257 1.29954Z" fill-rule="evenodd" fill="#033455" />
    <path _ngcontent-serverApp-c2="" clip-rule="evenodd" d="M25.5262 11.6624C25.5262 11.7794 25.5262 11.8965 25.4969 12.0136C25.4676 12.0722 25.4384 12.0722 25.4091 12.0136C25.3798 11.8965 25.4091 11.7794 25.4384 11.6624C25.4676 11.6624 25.4969 11.6624 25.5262 11.6624Z" fill-rule="evenodd" fill="#033455" />
    <path _ngcontent-serverApp-c2="" clip-rule="evenodd" d="M30.6196 17.8098C30.7367 17.8976 30.8538 17.9562 30.8831 18.1318C30.7367 18.0733 30.6196 17.9855 30.6196 17.8098Z" fill-rule="evenodd" fill="#033455" />
    <path _ngcontent-serverApp-c2="" clip-rule="evenodd" d="M29.8582 10.5499C29.8582 10.6085 29.8582 10.6963 29.7704 10.667C29.7119 10.6377 29.6533 10.6377 29.6533 10.5499C29.6533 10.4621 29.7119 10.4328 29.7411 10.3743C29.829 10.4035 29.7997 10.4914 29.8582 10.5499Z" fill-rule="evenodd" fill="#033455" />
    <path _ngcontent-serverApp-c2="" clip-rule="evenodd" d="M35.1866 4.69516C35.128 4.78298 35.0695 4.78298 35.0402 4.75371C34.9816 4.72443 35.0402 4.66588 35.0695 4.60734C35.0987 4.54879 35.1573 4.54879 35.2158 4.57807C35.2744 4.63661 35.1866 4.66589 35.1866 4.69516Z" fill-rule="evenodd" fill="#033455" />
    <path _ngcontent-serverApp-c2="" clip-rule="evenodd" d="M37.382 0.831299C37.382 0.860572 37.382 0.889847 37.382 0.91912C37.2649 0.948394 37.1478 0.948393 37.0307 0.977666C37.0015 0.948393 37.0015 0.919118 37.0307 0.889845C37.1478 0.860571 37.2649 0.831299 37.382 0.831299Z" fill-rule="evenodd" fill="#033455" />
    <path _ngcontent-serverApp-c2="" clip-rule="evenodd" d="M41.334 21.3519C41.3632 21.3226 41.3632 21.3226 41.3925 21.2933C41.4511 21.264 41.5096 21.0884 41.6267 21.264C41.5389 21.3519 41.4218 21.4397 41.3047 21.4689C41.3047 21.4397 41.3047 21.3811 41.334 21.3519Z" fill-rule="evenodd" fill="#033455" />
    <path _ngcontent-serverApp-c2="" clip-rule="evenodd" d="M49.413 18.7759C49.3544 18.7759 49.3544 18.8638 49.2666 18.893C49.2666 18.7174 49.413 18.6588 49.4715 18.5417C49.5301 18.6296 49.4422 18.6881 49.413 18.7759Z" fill-rule="evenodd" fill="#033455" />
    <path _ngcontent-serverApp-c2="" clip-rule="evenodd" d="M39.2848 1.73865C39.1677 1.82647 39.0506 1.79719 38.875 1.76792C39.0799 1.65083 39.197 1.73865 39.2848 1.73865Z" fill-rule="evenodd" fill="#033455" />
    <path _ngcontent-serverApp-c2="" clip-rule="evenodd" d="M36.6203 3.99268C36.5618 4.16832 36.4739 4.19759 36.3861 4.19759C36.3569 4.19759 36.3276 4.13904 36.3569 4.10977C36.4154 4.02195 36.5325 4.10977 36.6203 3.99268Z" fill-rule="evenodd" fill="#033455" />
    <path _ngcontent-serverApp-c2="" clip-rule="evenodd" d="M25.8769 9.61326C25.8769 9.70108 25.8476 9.7889 25.8476 9.87672C25.6134 9.84745 25.7305 9.73036 25.7891 9.61326C25.8183 9.58399 25.8476 9.58399 25.8769 9.61326Z" fill-rule="evenodd" fill="#033455" />
    <path _ngcontent-serverApp-c2="" clip-rule="evenodd" d="M50.6718 11.5745C50.5839 11.4867 50.5839 11.3988 50.6132 11.311C50.6425 11.2817 50.6718 11.2817 50.701 11.311C50.7596 11.3696 50.7596 11.4574 50.6718 11.5745Z" fill-rule="evenodd" fill="#033455" />
    <path _ngcontent-serverApp-c2="" clip-rule="evenodd" d="M41.9482 22.0837C42.0067 22.0251 42.0946 21.9958 42.1824 21.9958C42.1238 22.1422 42.0067 22.1715 41.8896 22.2008C41.9482 22.1715 42.0067 22.1422 41.9482 22.0837Z" fill-rule="evenodd" fill="#033455" />
    <path _ngcontent-serverApp-c2="" clip-rule="evenodd" d="M37.2351 2.26562C37.2351 2.35345 37.2937 2.47054 37.118 2.38272C37.0888 2.35345 37.001 2.412 36.9717 2.32418C36.9717 2.23636 37.0595 2.2949 37.0888 2.26562C37.118 2.26562 37.1766 2.2949 37.2351 2.26562Z" fill-rule="evenodd" fill="#033455" />
    <path _ngcontent-serverApp-c2="" clip-rule="evenodd" d="M29.536 6.71519C29.4482 6.68592 29.4482 6.77374 29.3896 6.80301C29.4189 6.65664 29.5067 6.5981 29.6238 6.53955C29.6238 6.65664 29.5653 6.68592 29.536 6.71519Z" fill-rule="evenodd" fill="#033455" />
    <path _ngcontent-serverApp-c2="" clip-rule="evenodd" d="M29.1562 16.1121C29.1269 16.1121 29.0976 16.0828 29.0976 16.0535C29.0976 15.9657 29.0098 15.8486 29.1855 15.8486C29.2147 15.8779 29.244 15.9072 29.2733 15.9365C29.244 15.995 29.2147 16.0535 29.1562 16.1121Z" fill-rule="evenodd" fill="#033455" />
    <path _ngcontent-serverApp-c2="" clip-rule="evenodd" d="M31.0298 16.3459C31.2054 16.4045 31.2054 16.4923 31.1762 16.6094C31.0591 16.5801 31.0591 16.463 31.0298 16.3459Z" fill-rule="evenodd" fill="#033455" />
    <path _ngcontent-serverApp-c2="" clip-rule="evenodd" d="M40.3973 21.6445C40.4265 21.6738 40.4265 21.7323 40.4558 21.7616C40.368 21.7909 40.3095 21.8202 40.2216 21.8494C40.1631 21.8202 40.1631 21.7909 40.1631 21.7323C40.1924 21.6738 40.2509 21.6445 40.3095 21.6445C40.3095 21.6445 40.368 21.6445 40.3973 21.6445Z" fill-rule="evenodd" fill="#033455" />
    <path _ngcontent-serverApp-c2="" clip-rule="evenodd" d="M28.4536 7.41771C28.4829 7.30062 28.5414 7.2128 28.6293 7.0957C28.6585 7.0957 28.6878 7.0957 28.6878 7.12498C28.7171 7.18353 28.6585 7.24207 28.6585 7.30062C28.6293 7.32989 28.6 7.38844 28.5707 7.41771C28.5122 7.44699 28.4829 7.44699 28.4536 7.41771Z" fill-rule="evenodd" fill="#033455" />
    <path _ngcontent-serverApp-c2="" clip-rule="evenodd" d="M29.4485 6.01257C29.3315 6.01257 29.3022 6.12966 29.2144 6.18821C29.2436 6.07112 29.3315 5.98329 29.39 5.92475C29.4193 5.89547 29.4485 5.89547 29.4778 5.95402C29.4778 5.95402 29.4778 5.98329 29.4485 6.01257Z" fill-rule="evenodd" fill="#033455" />
    <path _ngcontent-serverApp-c2="" clip-rule="evenodd" d="M41.6268 21.2642C41.5389 21.1471 41.4804 21.3228 41.3926 21.2935C41.3926 21.2642 41.3926 21.235 41.3926 21.2057C41.4804 21.1471 41.5682 21.1179 41.656 21.0593C41.5975 21.1179 41.6268 21.2057 41.6268 21.2642Z" fill-rule="evenodd" fill="#033455" />
    <path _ngcontent-serverApp-c2="" clip-rule="evenodd" d="M32.6102 5.25133C32.5809 5.30987 32.5517 5.36842 32.4346 5.30987C32.4931 5.19278 32.5809 5.10496 32.6688 5.07568C32.6688 5.13423 32.5809 5.16351 32.6102 5.25133Z" fill-rule="evenodd" fill="#033455" />
    <path _ngcontent-serverApp-c2="" clip-rule="evenodd" d="M37.0305 0.889893C37.0305 0.919166 37.0305 0.94844 37.0305 0.977714C36.972 1.00699 36.8842 1.03626 36.7963 0.977714C36.7671 0.94844 36.7671 0.948441 36.7378 0.919168C36.8549 0.919168 36.9427 0.919166 37.0305 0.889893Z" fill-rule="evenodd" fill="#033455" />
    <path _ngcontent-serverApp-c2="" clip-rule="evenodd" d="M40.719 21.4396C40.6605 21.4982 40.5727 21.5275 40.4848 21.5275C40.4556 21.5275 40.4556 21.5275 40.4556 21.5275V21.4982C40.5141 21.4104 40.6312 21.4104 40.719 21.3811C40.7483 21.4104 40.7776 21.4396 40.719 21.4396Z" fill-rule="evenodd" fill="#033455" />
    <path _ngcontent-serverApp-c2="" clip-rule="evenodd" d="M40.4554 21.498L40.4847 21.5273C40.4554 21.5566 40.3968 21.6151 40.3676 21.6444C40.3383 21.6444 40.3383 21.6444 40.309 21.6444C40.2505 21.6444 40.2212 21.6151 40.2212 21.5859C40.309 21.5566 40.3676 21.498 40.4554 21.498Z" fill-rule="evenodd" fill="#033455" />
    <path _ngcontent-serverApp-c2="" clip-rule="evenodd" d="M40.2503 21.5859C40.2795 21.6152 40.3088 21.6445 40.3381 21.6445C40.2795 21.6738 40.2503 21.6738 40.1917 21.703C40.1624 21.7908 40.1332 21.7616 40.1039 21.7323C40.0454 21.6152 40.1917 21.6445 40.2503 21.5859Z" fill-rule="evenodd" fill="#033455" />
    <path _ngcontent-serverApp-c2="" clip-rule="evenodd" d="M25.8774 9.61329C25.8482 9.61329 25.8189 9.61329 25.7896 9.64256C25.7311 9.58402 25.6433 9.49619 25.7604 9.43765C25.8774 9.3791 25.8482 9.55474 25.9067 9.58401C25.9067 9.61329 25.9067 9.61329 25.8774 9.61329Z" fill-rule="evenodd" fill="#033455" />
    <path _ngcontent-serverApp-c2="" clip-rule="evenodd" d="M39.7236 22.4353C39.7822 22.3767 39.8407 22.3767 39.9285 22.3767C39.87 22.4645 39.7822 22.5231 39.6943 22.5524C39.6943 22.4938 39.6943 22.4645 39.7236 22.4353Z" fill-rule="evenodd" fill="#033455" />
    <path _ngcontent-serverApp-c2="" clip-rule="evenodd" d="M31.7317 18.2489C31.6147 18.2782 31.4976 18.2782 31.4976 18.1318C31.5854 18.1611 31.6439 18.1904 31.7317 18.2489Z" fill-rule="evenodd" fill="#033455" />
    <path _ngcontent-serverApp-c2="" clip-rule="evenodd" d="M32.5809 4.05116C32.5223 4.1097 32.4638 4.19752 32.376 4.13898C32.376 4.1097 32.4052 4.08043 32.4052 4.02188C32.4638 4.02188 32.5223 3.90479 32.5809 4.05116Z" fill-rule="evenodd" fill="#033455" />
    <path _ngcontent-serverApp-c2="" clip-rule="evenodd" d="M41.3047 21.9958C41.3632 21.9372 41.3925 21.8787 41.5096 21.8787L41.5389 21.9079C41.4803 21.9665 41.4511 22.0543 41.3632 22.025C41.334 22.025 41.334 22.025 41.3047 21.9958Z" fill-rule="evenodd" fill="#033455" />
    <path _ngcontent-serverApp-c2="" clip-rule="evenodd" d="M29.3896 6.94927C29.4482 6.86145 29.4775 6.80291 29.536 6.71509C29.5653 6.71509 29.5946 6.71509 29.6238 6.71509C29.5653 6.80291 29.536 6.94927 29.3896 6.94927Z" fill-rule="evenodd" fill="#033455" />
    <path _ngcontent-serverApp-c2="" clip-rule="evenodd" d="M43.6465 23.2548C43.705 23.1962 43.7929 23.1669 43.8514 23.1084C43.8514 23.1084 43.8807 23.1084 43.8807 23.1377C43.8221 23.1962 43.7929 23.2548 43.7343 23.3133C43.705 23.284 43.6758 23.2548 43.6465 23.2548Z" fill-rule="evenodd" fill="#033455" />
    <path _ngcontent-serverApp-c2="" clip-rule="evenodd" d="M28.6587 7.15431L28.6294 7.12503C28.6879 7.03721 28.7172 6.97866 28.7758 6.89084C28.805 6.89084 28.8343 6.86157 28.8636 6.86157C28.8343 6.92012 28.7758 7.00794 28.7465 7.06649C28.7172 7.12503 28.6879 7.15431 28.6587 7.15431Z" fill-rule="evenodd" fill="#033455" />
    <path _ngcontent-serverApp-c2="" clip-rule="evenodd" d="M38.2015 3.99261C38.143 3.99261 38.0844 4.02188 38.0259 4.02188C38.0259 3.9926 38.0259 3.96333 38.0259 3.96333C38.0844 3.90478 38.143 3.90479 38.2015 3.90479C38.2601 3.93406 38.2601 3.96333 38.2015 3.99261Z" fill-rule="evenodd" fill="#033455" />
    <path _ngcontent-serverApp-c2="" clip-rule="evenodd" d="M42.6509 20.1224C42.6509 20.0931 42.6509 20.0638 42.6509 20.0346C42.7094 20.0053 42.768 19.9467 42.8558 20.0053C42.8265 20.0931 42.7387 20.1224 42.6509 20.1224Z" fill-rule="evenodd" fill="#033455" />
    <path _ngcontent-serverApp-c2="" clip-rule="evenodd" d="M35.8892 1.27041C35.9477 1.21187 35.977 1.15332 36.0941 1.18259C36.0648 1.27041 35.977 1.27041 35.8892 1.27041Z" fill-rule="evenodd" fill="#033455" />
    <path _ngcontent-serverApp-c2="" clip-rule="evenodd" d="M28.8633 7.59326C28.8633 7.59326 28.8633 7.56399 28.834 7.56399C28.9218 7.50544 28.8925 7.35907 29.0389 7.41762C29.0389 7.47616 28.9804 7.56399 28.8633 7.59326Z" fill-rule="evenodd" fill="#033455" />
    <path _ngcontent-serverApp-c2="" clip-rule="evenodd" d="M40.397 24.1328C40.4555 24.1035 40.5433 24.0742 40.6312 24.0742C40.5726 24.1913 40.4848 24.1913 40.397 24.1913C40.397 24.162 40.397 24.1328 40.397 24.1328Z" fill-rule="evenodd" fill="#033455" />
    <path _ngcontent-serverApp-c2="" clip-rule="evenodd" d="M43.793 23.7231C43.8515 23.6938 43.9101 23.6352 43.9686 23.606C44.0564 23.6645 43.9979 23.6938 43.9393 23.7231C43.8808 23.7523 43.8515 23.8109 43.793 23.8109C43.793 23.7816 43.793 23.7523 43.793 23.7231Z" fill-rule="evenodd" fill="#033455" />
    <path _ngcontent-serverApp-c2="" clip-rule="evenodd" d="M25.3503 11.2527C25.2917 11.1356 25.321 11.0771 25.3795 10.9893C25.4674 11.0771 25.4088 11.1649 25.3503 11.2527Z" fill-rule="evenodd" fill="#033455" />
    <path _ngcontent-serverApp-c2="" clip-rule="evenodd" d="M28.6581 7.15423C28.6874 7.12495 28.7166 7.09568 28.7459 7.06641C28.7752 7.09568 28.8044 7.12495 28.8337 7.15423C28.8044 7.1835 28.7752 7.21277 28.7459 7.27132C28.7166 7.30059 28.7166 7.38841 28.6288 7.32987C28.5995 7.27132 28.6581 7.21277 28.6581 7.15423Z" fill-rule="evenodd" fill="#033455" />
    <path _ngcontent-serverApp-c2="" clip-rule="evenodd" d="M44.2021 6.71514C44.29 6.56877 44.3192 6.71514 44.3778 6.74441C44.29 6.89078 44.2607 6.74442 44.2021 6.71514Z" fill-rule="evenodd" fill="#033455" />
    <path _ngcontent-serverApp-c2="" clip-rule="evenodd" d="M46.8082 4.49029C46.6911 4.51957 46.6618 4.40247 46.574 4.3732C46.5155 4.34393 46.4569 4.31465 46.5155 4.2561C46.6326 4.34392 46.7204 4.40247 46.8082 4.49029Z" fill-rule="evenodd" fill="#033455" />
    <path _ngcontent-serverApp-c2="" clip-rule="evenodd" d="M29.8583 10.5501C29.6827 10.5794 29.8583 10.4037 29.7412 10.3744C29.7705 10.2866 29.829 10.3744 29.8876 10.3452C29.8583 10.4037 29.8583 10.4623 29.8583 10.5501Z" fill-rule="evenodd" fill="#033455" />
    <path _ngcontent-serverApp-c2="" clip-rule="evenodd" d="M38.1429 23.8108C38.1429 23.8401 38.1429 23.8693 38.1429 23.8986C38.0844 23.9279 38.0258 23.9572 37.938 23.9279C37.9965 23.8108 38.0551 23.8108 38.1429 23.8108Z" fill-rule="evenodd" fill="#033455" />
    <path _ngcontent-serverApp-c2="" clip-rule="evenodd" d="M38.0259 1.29956C38.0844 1.35811 38.1722 1.35811 38.2601 1.35811C38.2893 1.38738 38.2893 1.38738 38.3186 1.41665C38.2601 1.44593 38.1722 1.44593 38.0844 1.41665C38.0552 1.38738 38.0259 1.35811 38.0259 1.29956Z" fill-rule="evenodd" fill="#033455" />
    <path _ngcontent-serverApp-c2="" clip-rule="evenodd" d="M34.4252 4.92944C34.4252 5.07581 34.3666 5.10509 34.2788 5.10509C34.2788 4.98799 34.3666 4.98799 34.4252 4.92944Z" fill-rule="evenodd" fill="#033455" />
    <path _ngcontent-serverApp-c2="" clip-rule="evenodd" d="M46.2225 3.7585C46.1054 3.81704 46.0468 3.72922 45.9883 3.6414C46.1346 3.61213 46.1932 3.67068 46.2225 3.7585Z" fill-rule="evenodd" fill="#033455" />
    <path _ngcontent-serverApp-c2="" clip-rule="evenodd" d="M40.7192 21.4398C40.7192 21.4105 40.7192 21.4105 40.7192 21.3813C40.7778 21.3227 40.8656 21.2642 40.9534 21.2642C40.9534 21.2934 40.9534 21.3227 40.9534 21.352C40.8949 21.3813 40.8656 21.4105 40.8071 21.4398C40.7778 21.4398 40.7485 21.4398 40.7192 21.4398Z" fill-rule="evenodd" fill="#033455" />
    <path _ngcontent-serverApp-c2="" clip-rule="evenodd" d="M45.6663 10.4329C45.6371 10.4329 45.6078 10.4329 45.5785 10.4329C45.5492 10.3744 45.52 10.3158 45.5492 10.228C45.6371 10.2573 45.6663 10.3451 45.6663 10.4329Z" fill-rule="evenodd" fill="#033455" />
    <path _ngcontent-serverApp-c2="" clip-rule="evenodd" d="M38.9627 22.4057C38.9042 22.435 38.8163 22.4642 38.7285 22.4642C38.7578 22.3764 38.8456 22.3764 38.9042 22.3764C38.9334 22.3471 38.9627 22.3471 38.9627 22.4057C38.9627 22.3764 38.9627 22.3764 38.9627 22.4057Z" fill-rule="evenodd" fill="#033455" />
    <path _ngcontent-serverApp-c2="" clip-rule="evenodd" d="M29.5365 16.8437C29.3901 17.0193 29.3901 16.8437 29.3608 16.7559C29.4487 16.7851 29.5072 16.7851 29.5365 16.8437Z" fill-rule="evenodd" fill="#033455" />
    <path _ngcontent-serverApp-c2="" clip-rule="evenodd" d="M38.9629 22.4059C38.9336 22.3766 38.9336 22.3766 38.9336 22.3473C38.9921 22.3181 39.08 22.2888 39.1678 22.2595C39.1385 22.4059 39.0214 22.3766 38.9629 22.4059Z" fill-rule="evenodd" fill="#033455" />
    <path _ngcontent-serverApp-c2="" clip-rule="evenodd" d="M43.7928 23.6353C43.7928 23.6645 43.7928 23.6938 43.7928 23.7231C43.7342 23.7816 43.6757 23.8109 43.5586 23.7523C43.6464 23.6938 43.705 23.6645 43.7928 23.6353Z" fill-rule="evenodd" fill="#033455" />
    <path _ngcontent-serverApp-c2="" clip-rule="evenodd" d="M30.8832 16.551C30.854 16.4925 30.7954 16.4632 30.7954 16.4047C30.854 16.3754 30.8832 16.434 30.9125 16.434C30.9418 16.4925 30.9711 16.5218 31.0003 16.5803C30.9418 16.6389 30.9125 16.5803 30.8832 16.551Z" fill-rule="evenodd" fill="#033455" />
    <path _ngcontent-serverApp-c2="" clip-rule="evenodd" d="M37.0301 2.14843C36.9716 2.23625 36.9423 2.26552 36.8545 2.23625C36.8838 2.14843 36.913 2.11916 37.0301 2.14843Z" fill-rule="evenodd" fill="#033455" />
    <path _ngcontent-serverApp-c2="" clip-rule="evenodd" d="M40.0751 21.7617C40.1044 21.7617 40.1336 21.7617 40.1629 21.7324C40.1629 21.7617 40.1922 21.8202 40.1922 21.8495C40.1336 21.8788 40.0751 21.9081 40.0458 21.8495C40.0165 21.8202 40.0458 21.791 40.0751 21.7617Z" fill-rule="evenodd" fill="#033455" />
    <path _ngcontent-serverApp-c2="" clip-rule="evenodd" d="M37.411 1.59229C37.411 1.62156 37.411 1.65083 37.411 1.6801C37.3524 1.70938 37.2939 1.73865 37.2354 1.70938C37.2646 1.62156 37.3524 1.59229 37.411 1.59229Z" fill-rule="evenodd" fill="#033455" />
    <path _ngcontent-serverApp-c2="" clip-rule="evenodd" d="M34.103 1.85582C34.1908 1.768 34.2201 1.73872 34.2787 1.68018C34.2787 1.70945 34.3079 1.73873 34.3079 1.73873C34.2787 1.82655 34.1908 1.82654 34.103 1.85582Z" fill-rule="evenodd" fill="#033455" />
    <path _ngcontent-serverApp-c2="" clip-rule="evenodd" d="M45.7835 3.4952C45.6664 3.4952 45.6078 3.40738 45.52 3.29028C45.6371 3.34883 45.7249 3.37811 45.7835 3.4952Z" fill-rule="evenodd" fill="#033455" />
    <path _ngcontent-serverApp-c2="" clip-rule="evenodd" d="M45.8418 3.69999C45.7539 3.67072 45.7832 3.64144 45.8125 3.61217C45.8417 3.5829 45.871 3.55362 45.9003 3.61217C45.9296 3.64144 45.9296 3.67072 45.9296 3.69999C45.9003 3.69999 45.871 3.69999 45.8418 3.69999Z" fill-rule="evenodd" fill="#033455" />
    <path _ngcontent-serverApp-c2="" clip-rule="evenodd" d="M32.3758 4.05127C32.4051 4.10982 32.3758 4.10981 32.3466 4.16836C32.3173 4.22691 32.288 4.28546 32.2295 4.28546C32.2002 4.28546 32.2002 4.25618 32.2002 4.25618C32.288 4.16836 32.3173 4.10982 32.3758 4.05127Z" fill-rule="evenodd" fill="#033455" />
    <path _ngcontent-serverApp-c2="" clip-rule="evenodd" d="M46.1346 23.2548C46.0175 23.1377 46.1346 23.1377 46.1931 23.1084C46.1931 23.1669 46.1638 23.1962 46.1346 23.2548Z" fill-rule="evenodd" fill="#033455" />
    <path _ngcontent-serverApp-c2="" clip-rule="evenodd" d="M30.3564 4.40258C30.415 4.34404 30.4443 4.25622 30.5321 4.34404C30.4735 4.34404 30.4443 4.4904 30.3564 4.40258Z" fill-rule="evenodd" fill="#033455" />
    <path _ngcontent-serverApp-c2="" clip-rule="evenodd" d="M28.4535 7.4177C28.4828 7.4177 28.5121 7.4177 28.5413 7.38843C28.5706 7.4177 28.5413 7.47625 28.5121 7.50552C28.4828 7.5348 28.4535 7.5348 28.4242 7.5348C28.395 7.56407 28.3657 7.59334 28.3364 7.62262C28.3364 7.5348 28.395 7.47625 28.4535 7.4177Z" fill-rule="evenodd" fill="#033455" />
    <path _ngcontent-serverApp-c2="" clip-rule="evenodd" d="M32.4054 3.49512C32.4347 3.52439 32.4347 3.52439 32.464 3.55366C32.4347 3.61221 32.4054 3.67076 32.3762 3.64148C32.3176 3.58294 32.3469 3.52439 32.4054 3.49512Z" fill-rule="evenodd" fill="#033455" />
    <path _ngcontent-serverApp-c2="" clip-rule="evenodd" d="M32.2295 4.2561C32.2295 4.2561 32.2295 4.28538 32.2588 4.28538C32.2003 4.34393 32.1417 4.40247 32.0832 4.46102C32.0539 4.3732 32.1124 4.3732 32.1417 4.31465C32.171 4.31465 32.2003 4.28538 32.2295 4.2561Z" fill-rule="evenodd" fill="#033455" />
    <path _ngcontent-serverApp-c2="" clip-rule="evenodd" d="M31.9663 7.68122C32.0249 7.68122 32.0541 7.5934 32.1127 7.62267C32.1127 7.68122 32.0834 7.73977 31.9956 7.73977C31.9956 7.7105 31.9663 7.71049 31.9663 7.68122Z" fill-rule="evenodd" fill="#033455" />
    <path _ngcontent-serverApp-c2="" clip-rule="evenodd" d="M38.9629 1.50451C38.9629 1.47524 38.9922 1.47524 39.0214 1.44596C39.08 1.41669 39.1385 1.44596 39.2263 1.47523C39.1093 1.50451 39.0214 1.50451 38.9629 1.50451Z" fill-rule="evenodd" fill="#033455" />
    <path _ngcontent-serverApp-c2="" clip-rule="evenodd" d="M40.0166 0.39209C40.0751 0.39209 40.1044 0.39209 40.1629 0.39209C40.1922 0.39209 40.1922 0.421365 40.2215 0.421365C40.1337 0.421365 40.0751 0.450636 39.9873 0.450636C39.9873 0.450636 39.9873 0.421363 40.0166 0.39209Z" fill-rule="evenodd" fill="#033455" />
    <path _ngcontent-serverApp-c2="" clip-rule="evenodd" d="M39.6064 1.50444C39.6064 1.50444 39.6064 1.47517 39.6357 1.47517C39.665 1.4459 39.6943 1.47517 39.7235 1.47517C39.7528 1.50444 39.7528 1.53372 39.7235 1.56299C39.6943 1.56299 39.665 1.56299 39.6064 1.50444Z" fill-rule="evenodd" fill="#033455" />
    <path _ngcontent-serverApp-c2="" clip-rule="evenodd" d="M30.9125 16.4337C30.8832 16.4337 30.8246 16.4044 30.7954 16.4044C30.7661 16.3752 30.7368 16.3459 30.7368 16.2874C30.7661 16.2874 30.7954 16.2874 30.8246 16.2874C30.8539 16.3166 30.8832 16.3752 30.9125 16.4337Z" fill-rule="evenodd" fill="#033455" />
    <path _ngcontent-serverApp-c2="" clip-rule="evenodd" d="M30.8833 16.551C30.9126 16.551 30.9419 16.6096 31.0004 16.5803C31.0297 16.6096 31.0589 16.6974 31.0297 16.6974C30.9418 16.6974 30.9126 16.6096 30.8833 16.551Z" fill-rule="evenodd" fill="#033455" />
    <path _ngcontent-serverApp-c2="" clip-rule="evenodd" d="M46.2227 3.99259C46.2812 3.96332 46.3105 3.99259 46.3105 4.02187C46.3397 4.05114 46.369 4.08041 46.3105 4.10969H46.2519C46.2519 4.08041 46.2227 4.02187 46.2227 3.99259Z" fill-rule="evenodd" fill="#033455" />
    <path _ngcontent-serverApp-c2="" clip-rule="evenodd" d="M46.5441 4.25621C46.5441 4.31476 46.5734 4.34404 46.6027 4.37331C46.6027 4.37331 46.5734 4.37331 46.5734 4.40258C46.5441 4.34403 46.427 4.34403 46.4563 4.25621C46.4563 4.19767 46.5149 4.22694 46.5441 4.25621Z" fill-rule="evenodd" fill="#033455" />
    <path _ngcontent-serverApp-c2="" clip-rule="evenodd" d="M25.5263 13.7409C25.6141 14.1215 25.7019 14.502 25.7312 14.9119C25.7312 14.9704 25.7605 15.0582 25.7019 15.0582C25.6141 15.0875 25.6141 14.9704 25.6141 14.9411C25.497 14.5606 25.4385 14.1508 25.4385 13.7409C25.4385 13.6824 25.4677 13.6824 25.5263 13.7409Z" fill-rule="evenodd" fill="#033455" />
    <path _ngcontent-serverApp-c2="" clip-rule="evenodd" d="M42.329 25.0697C41.9485 25.2746 41.5094 25.3917 41.0703 25.4502C41.0117 25.421 41.0117 25.3917 41.0703 25.3624C41.4801 25.1868 41.8607 24.9526 42.329 25.0111C42.3583 25.0404 42.3583 25.0404 42.329 25.0697Z" fill-rule="evenodd" fill="#033455" />
    <path _ngcontent-serverApp-c2="" clip-rule="evenodd" d="M42.3286 25.0697C42.3286 25.0404 42.3286 25.0404 42.3286 25.0112C42.5043 24.9819 42.5335 24.8062 42.6506 24.7184C42.7092 24.6892 42.797 24.6013 42.8555 24.6891C42.9141 24.8062 42.8263 24.8355 42.7384 24.8648C42.6213 24.9526 42.475 25.0112 42.3286 25.0697Z" fill-rule="evenodd" fill="#033455" />
    <path _ngcontent-serverApp-c2="" clip-rule="evenodd" d="M42.0947 22.8158C42.2996 22.6694 42.4753 22.406 42.8266 22.3767C42.5924 22.5816 42.3582 22.728 42.0947 22.8158Z" fill-rule="evenodd" fill="#033455" />
    <path _ngcontent-serverApp-c2="" clip-rule="evenodd" d="M46.0758 21.6739C46.1636 21.5568 46.2807 21.4689 46.427 21.4104C46.2514 21.6153 46.0758 21.8202 45.9001 21.9959C45.8416 21.8495 46.0465 21.8202 46.0758 21.6739Z" fill-rule="evenodd" fill="#033455" />
    <path _ngcontent-serverApp-c2="" clip-rule="evenodd" d="M25.5262 13.7407C25.4969 13.7407 25.4383 13.7407 25.4091 13.7407C25.3798 13.5358 25.3505 13.3309 25.3798 13.126C25.4091 13.126 25.4384 13.126 25.4384 13.1553C25.4676 13.3602 25.4969 13.5651 25.5262 13.7407Z" fill-rule="evenodd" fill="#033455" />
    <path _ngcontent-serverApp-c2="" clip-rule="evenodd" d="M46.0758 21.6738C46.0758 21.8202 45.9002 21.8787 45.9002 21.9958C45.8416 22.0836 45.7831 22.1422 45.666 22.1715C45.666 22.1715 45.6367 22.1715 45.6367 22.1422C45.7831 21.9958 45.9295 21.8495 46.0758 21.6738Z" fill-rule="evenodd" fill="#033455" />
    <path _ngcontent-serverApp-c2="" clip-rule="evenodd" d="M29.1854 15.8484C29.0683 15.8777 29.1268 15.9948 29.0976 16.0534C28.9805 15.9363 28.9805 15.7899 28.9805 15.6143C29.0976 15.7021 29.2147 15.7314 29.1854 15.8484Z" fill-rule="evenodd" fill="#033455" />
    <path _ngcontent-serverApp-c2="" clip-rule="evenodd" d="M27.6918 6.30511C27.7503 6.27583 27.7796 6.21729 27.8381 6.21729C27.7503 6.33438 27.721 6.48075 27.5747 6.56857C27.5454 6.4222 27.6332 6.36365 27.6918 6.30511Z" fill-rule="evenodd" fill="#033455" />
    <path _ngcontent-serverApp-c2="" clip-rule="evenodd" d="M31.352 6.48077C31.4106 6.39295 31.4984 6.30513 31.5569 6.24658C31.5862 6.24658 31.5862 6.24658 31.5862 6.24658V6.27586C31.5277 6.39295 31.4691 6.51004 31.3228 6.56859C31.3228 6.53932 31.352 6.51004 31.352 6.48077Z" fill-rule="evenodd" fill="#033455" />
    <path _ngcontent-serverApp-c2="" clip-rule="evenodd" d="M45.637 22.1716C45.6662 22.1716 45.6662 22.1716 45.637 22.1716C45.5784 22.318 45.4906 22.4351 45.3442 22.4644L45.3149 22.4351C45.432 22.3473 45.5199 22.2595 45.637 22.1716Z" fill-rule="evenodd" fill="#033455" />
    <path _ngcontent-serverApp-c2="" clip-rule="evenodd" d="M31.5854 6.27605L31.5562 6.24678C31.6732 6.21751 31.4976 6.07114 31.644 6.04187C31.7025 6.04187 31.7318 5.98332 31.7903 6.01259C31.7611 6.12968 31.6732 6.18823 31.5854 6.27605Z" fill-rule="evenodd" fill="#033455" />
    <path _ngcontent-serverApp-c2="" clip-rule="evenodd" d="M38.2017 3.99258C38.2017 3.96331 38.2017 3.93403 38.2017 3.90476C38.2895 3.87549 38.3773 3.84622 38.4651 3.93404C38.3773 3.99258 38.2895 3.99258 38.2017 3.99258Z" fill-rule="evenodd" fill="#033455" />
    <path _ngcontent-serverApp-c2="" clip-rule="evenodd" d="M41.5386 21.9081C41.5386 21.791 41.6557 21.791 41.7142 21.7324C41.802 21.791 41.7435 21.8202 41.6849 21.8495C41.6264 21.8495 41.5971 21.9373 41.5386 21.9081Z" fill-rule="evenodd" fill="#033455" />
    <path _ngcontent-serverApp-c2="" clip-rule="evenodd" d="M32.3177 5.42725C32.2592 5.54434 32.2299 5.57361 32.1128 5.57361C32.1421 5.48579 32.2006 5.42725 32.3177 5.42725Z" fill-rule="evenodd" fill="#033455" />
    <path _ngcontent-serverApp-c2="" clip-rule="evenodd" d="M43.9395 23.723C43.9395 23.6937 43.9687 23.6644 43.9687 23.6059C44.0273 23.5473 44.0858 23.5181 44.1736 23.5181C44.1151 23.6352 44.0565 23.6937 43.9395 23.723Z" fill-rule="evenodd" fill="#033455" />
    <path _ngcontent-serverApp-c2="" clip-rule="evenodd" d="M31.7904 6.01277C31.7611 6.04205 31.7026 6.07132 31.644 6.04205C31.6733 5.92496 31.7904 5.89568 31.9075 5.80786C31.849 5.89568 31.8197 5.95423 31.7904 6.01277Z" fill-rule="evenodd" fill="#033455" />
    <path _ngcontent-serverApp-c2="" clip-rule="evenodd" d="M25.409 12.0137C25.4383 12.0137 25.4675 12.0137 25.4968 12.0137C25.5261 12.1015 25.4968 12.1893 25.4675 12.3064C25.3504 12.1893 25.3797 12.1015 25.409 12.0137Z" fill-rule="evenodd" fill="#033455" />
    <path _ngcontent-serverApp-c2="" clip-rule="evenodd" d="M28.5705 7.94478C28.5998 7.9155 28.6584 7.9155 28.6876 7.88623C28.6584 7.97405 28.5998 8.03259 28.5705 8.12041C28.4534 8.06187 28.512 8.00332 28.5705 7.94478Z" fill-rule="evenodd" fill="#033455" />
    <path _ngcontent-serverApp-c2="" clip-rule="evenodd" d="M28.4829 7.50567C28.5122 7.4764 28.5122 7.44713 28.5415 7.41785C28.5707 7.38858 28.5707 7.3593 28.6 7.33003C28.6293 7.30076 28.6878 7.30076 28.7171 7.27148C28.7171 7.3593 28.6585 7.41785 28.6 7.4764C28.5707 7.50567 28.5415 7.56422 28.4829 7.50567Z" fill-rule="evenodd" fill="#033455" />
    <path _ngcontent-serverApp-c2="" clip-rule="evenodd" d="M31.1176 6.8029C31.0883 6.86145 31.059 6.92 30.9712 6.89073C31.0005 6.80291 31.0297 6.74436 31.1176 6.71509C31.1468 6.74436 31.1176 6.77363 31.1176 6.8029Z" fill-rule="evenodd" fill="#033455" />
    <path _ngcontent-serverApp-c2="" clip-rule="evenodd" d="M31.1172 6.80299C31.1172 6.77371 31.1172 6.74445 31.1172 6.71517C31.1757 6.65662 31.2636 6.5688 31.3221 6.51025C31.3221 6.53953 31.3221 6.5688 31.3221 6.59808C31.2636 6.65662 31.205 6.71517 31.1172 6.80299Z" fill-rule="evenodd" fill="#033455" />
    <path _ngcontent-serverApp-c2="" clip-rule="evenodd" d="M25.438 13.1846C25.4087 13.1846 25.4087 13.1553 25.3795 13.1553C25.3795 13.0675 25.3209 12.9797 25.4087 12.9211C25.4673 12.9797 25.438 13.0968 25.438 13.1846Z" fill-rule="evenodd" fill="#033455" />
    <path _ngcontent-serverApp-c2="" clip-rule="evenodd" d="M28.4829 7.50535C28.5414 7.53462 28.5707 7.47607 28.6 7.47607C28.5707 7.56389 28.5707 7.71026 28.4243 7.5639C28.4536 7.53462 28.4536 7.50535 28.4829 7.50535Z" fill-rule="evenodd" fill="#033455" />
    <path _ngcontent-serverApp-c2="" clip-rule="evenodd" d="M41.6846 21.8202C41.6846 21.7909 41.7431 21.7617 41.7138 21.7031C41.7431 21.6738 41.8017 21.6738 41.8309 21.7031C41.8309 21.7909 41.7724 21.8202 41.6846 21.8202Z" fill-rule="evenodd" fill="#033455" />
    <path _ngcontent-serverApp-c2="" clip-rule="evenodd" d="M41.0704 25.3623C41.0704 25.3916 41.0704 25.4209 41.0704 25.4501C41.0119 25.4794 40.9241 25.5087 40.9241 25.4501C40.8948 25.3623 41.0119 25.3916 41.0704 25.3623Z" fill-rule="evenodd" fill="#033455" />
</svg>