<svg xmlns="http://www.w3.org/2000/svg" fill="none" viewBox="0 0 35 35">
    <defs />
    <path fill="#033455" d="M5.05 5.2A17.4 17.4 0 0117.25 0c.5 0 .93.34 1.02.83a4.25 4.25 0 003.87 3.4 1.03 1.03 0 01.92 1.3 5.38 5.38 0 00.72 4.28 5.34 5.34 0 003.7 2.5c.55.07.93.57.87 1.12a4.26 4.26 0 005.3 4.6 1.02 1.02 0 011.28 1.1 17.45 17.45 0 01-5.6 11.27A17.45 17.45 0 0117.5 35c-4.67 0-9.07-1.82-12.37-5.13C1.83 26.57 0 22.17 0 17.5c0-4.63 1.8-9 5.05-12.3zm1.53 23.22a15.35 15.35 0 0010.92 4.53 15.4 15.4 0 0015.21-12.73 6.32 6.32 0 01-6.43-6.08 7.5 7.5 0 01-4.23-3.23 7.56 7.56 0 01-1.18-4.8 6.32 6.32 0 01-4.38-4.03c-3.78.25-7.3 1.85-9.98 4.57A15.35 15.35 0 002.05 17.5c0 4.13 1.61 8 4.53 10.92z" />
    <path fill="#033455" d="M22.93 18.5a3.56 3.56 0 11-.01 7.12 3.56 3.56 0 010-7.12zm0 5.06a1.5 1.5 0 100-3 1.5 1.5 0 000 3zM14.37 12.5a3.76 3.76 0 110-7.51 3.76 3.76 0 010 7.51zm0-5.45a1.7 1.7 0 100 3.4 1.7 1.7 0 000-3.4zM12.58 21.33a3.44 3.44 0 11-.01 6.9 3.44 3.44 0 010-6.9zm0 4.83a1.4 1.4 0 100-2.78 1.4 1.4 0 000 2.78zM4.33 16.05a3.44 3.44 0 116.88 0 3.44 3.44 0 01-6.88 0zm3.44 1.39a1.4 1.4 0 100-2.78 1.4 1.4 0 000 2.78zM8.77 9.58c-.09.42-.43.75-.85.81-.43.06-.86-.15-1.06-.53-.2-.38-.14-.86.15-1.17.28-.32.75-.43 1.15-.26.45.19.7.67.61 1.15zM4.61 22.16c.08-.42.44-.75.86-.82a1.04 1.04 0 01.91 1.7c-.3.32-.76.43-1.15.27a1.03 1.03 0 01-.62-1.15zM21.93 14.88c-.08.42-.44.75-.86.82a1.03 1.03 0 01-.91-1.7c.29-.33.76-.43 1.15-.27.45.19.71.68.62 1.15zM17.86 28.97c.1-.42.43-.75.86-.81.42-.06.85.15 1.05.53.2.38.15.85-.14 1.17-.29.32-.76.42-1.15.26a1.03 1.03 0 01-.62-1.15zM13.39 15.2c.13-.4.5-.7.93-.72.43-.02.83.23 1 .63.16.4.06.86-.26 1.15-.32.29-.8.35-1.17.15a1.03 1.03 0 01-.5-1.2zM15.92 20.23a1.03 1.03 0 01-.43-1.1c.1-.42.47-.73.9-.78.42-.04.84.2 1.02.59.19.38.1.86-.2 1.16-.34.34-.9.4-1.3.13zM28.83 22.16c.08-.42.43-.75.85-.82a1.03 1.03 0 01.91 1.7c-.29.32-.76.43-1.15.27a1.03 1.03 0 01-.61-1.15zM28.8 7.11A3.56 3.56 0 1128.82 0a3.56 3.56 0 010 7.12zm0-5.06a1.5 1.5 0 100 3.01 1.5 1.5 0 000-3zM34.88 11.57c-.2.38-.63.6-1.05.53-.43-.07-.77-.4-.86-.82-.08-.41.11-.86.48-1.07.37-.23.84-.19 1.18.08.38.31.47.85.25 1.28z" />
</svg>